[
{
  "directory": "/det/lar/usersarea/mbiaut/devarea/latodim/dim_custom/x86_64-centos7-gcc11-opt",
  "command": "/cvmfs/sft.cern.ch/lcg/releases/gcc/11.1.0-e80bf/x86_64-centos7/bin/gcc -DMIPSEL -DPROTOCOL=1 -DTDAQ_PACKAGE_NAME=\\\"dim_custom\\\" -D_GNU_SOURCE -D_REENTRANT -D__USE_XOPEN2K8 -Ddim_core_EXPORTS -I/det/lar/usersarea/mbiaut/devarea/latodim/dim_custom/x86_64-centos7-gcc11-opt -I/det/lar/usersarea/mbiaut/devarea/latodim/dim_custom -I/cvmfs/atlas.cern.ch/repo/sw/tdaq/tdaq-common/tdaq-common-04-04-00/installed/include -I/cvmfs/atlas.cern.ch/repo/sw/tdaq/tdaq-common/tdaq-common-04-04-00/installed/x86_64-centos7-gcc11-opt/include -I/cvmfs/atlas.cern.ch/repo/sw/tdaq/tdaq-common/tdaq-common-04-04-00/installed/external/x86_64-centos7-gcc11-opt/include -I/cvmfs/atlas.cern.ch/repo/sw/tdaq/tdaq/tdaq-09-04-00/installed/include -I/cvmfs/atlas.cern.ch/repo/sw/tdaq/tdaq/tdaq-09-04-00/installed/x86_64-centos7-gcc11-opt/include -I/cvmfs/atlas.cern.ch/repo/sw/tdaq/tdaq/tdaq-09-04-00/installed/external/x86_64-centos7-gcc11-opt/include  -pipe -Wall -Wwrite-strings -fno-omit-frame-pointer -rdynamic -fno-inline-small-functions -fno-indirect-inlining -fno-optimize-sibling-calls -fno-inline-functions-called-once -O2 -g -fPIC -o CMakeFiles/dim-core.dir/src/conn_handler.c.o -c /det/lar/usersarea/mbiaut/devarea/latodim/dim_custom/src/conn_handler.c",
  "file": "/det/lar/usersarea/mbiaut/devarea/latodim/dim_custom/src/conn_handler.c"
},
{
  "directory": "/det/lar/usersarea/mbiaut/devarea/latodim/dim_custom/x86_64-centos7-gcc11-opt",
  "command": "/cvmfs/sft.cern.ch/lcg/releases/gcc/11.1.0-e80bf/x86_64-centos7/bin/gcc -DMIPSEL -DPROTOCOL=1 -DTDAQ_PACKAGE_NAME=\\\"dim_custom\\\" -D_GNU_SOURCE -D_REENTRANT -D__USE_XOPEN2K8 -Ddim_core_EXPORTS -I/det/lar/usersarea/mbiaut/devarea/latodim/dim_custom/x86_64-centos7-gcc11-opt -I/det/lar/usersarea/mbiaut/devarea/latodim/dim_custom -I/cvmfs/atlas.cern.ch/repo/sw/tdaq/tdaq-common/tdaq-common-04-04-00/installed/include -I/cvmfs/atlas.cern.ch/repo/sw/tdaq/tdaq-common/tdaq-common-04-04-00/installed/x86_64-centos7-gcc11-opt/include -I/cvmfs/atlas.cern.ch/repo/sw/tdaq/tdaq-common/tdaq-common-04-04-00/installed/external/x86_64-centos7-gcc11-opt/include -I/cvmfs/atlas.cern.ch/repo/sw/tdaq/tdaq/tdaq-09-04-00/installed/include -I/cvmfs/atlas.cern.ch/repo/sw/tdaq/tdaq/tdaq-09-04-00/installed/x86_64-centos7-gcc11-opt/include -I/cvmfs/atlas.cern.ch/repo/sw/tdaq/tdaq/tdaq-09-04-00/installed/external/x86_64-centos7-gcc11-opt/include  -pipe -Wall -Wwrite-strings -fno-omit-frame-pointer -rdynamic -fno-inline-small-functions -fno-indirect-inlining -fno-optimize-sibling-calls -fno-inline-functions-called-once -O2 -g -fPIC -o CMakeFiles/dim-core.dir/src/copy_swap.c.o -c /det/lar/usersarea/mbiaut/devarea/latodim/dim_custom/src/copy_swap.c",
  "file": "/det/lar/usersarea/mbiaut/devarea/latodim/dim_custom/src/copy_swap.c"
},
{
  "directory": "/det/lar/usersarea/mbiaut/devarea/latodim/dim_custom/x86_64-centos7-gcc11-opt",
  "command": "/cvmfs/sft.cern.ch/lcg/releases/gcc/11.1.0-e80bf/x86_64-centos7/bin/gcc -DMIPSEL -DPROTOCOL=1 -DTDAQ_PACKAGE_NAME=\\\"dim_custom\\\" -D_GNU_SOURCE -D_REENTRANT -D__USE_XOPEN2K8 -Ddim_core_EXPORTS -I/det/lar/usersarea/mbiaut/devarea/latodim/dim_custom/x86_64-centos7-gcc11-opt -I/det/lar/usersarea/mbiaut/devarea/latodim/dim_custom -I/cvmfs/atlas.cern.ch/repo/sw/tdaq/tdaq-common/tdaq-common-04-04-00/installed/include -I/cvmfs/atlas.cern.ch/repo/sw/tdaq/tdaq-common/tdaq-common-04-04-00/installed/x86_64-centos7-gcc11-opt/include -I/cvmfs/atlas.cern.ch/repo/sw/tdaq/tdaq-common/tdaq-common-04-04-00/installed/external/x86_64-centos7-gcc11-opt/include -I/cvmfs/atlas.cern.ch/repo/sw/tdaq/tdaq/tdaq-09-04-00/installed/include -I/cvmfs/atlas.cern.ch/repo/sw/tdaq/tdaq/tdaq-09-04-00/installed/x86_64-centos7-gcc11-opt/include -I/cvmfs/atlas.cern.ch/repo/sw/tdaq/tdaq/tdaq-09-04-00/installed/external/x86_64-centos7-gcc11-opt/include  -pipe -Wall -Wwrite-strings -fno-omit-frame-pointer -rdynamic -fno-inline-small-functions -fno-indirect-inlining -fno-optimize-sibling-calls -fno-inline-functions-called-once -O2 -g -fPIC -o CMakeFiles/dim-core.dir/src/dic.c.o -c /det/lar/usersarea/mbiaut/devarea/latodim/dim_custom/src/dic.c",
  "file": "/det/lar/usersarea/mbiaut/devarea/latodim/dim_custom/src/dic.c"
},
{
  "directory": "/det/lar/usersarea/mbiaut/devarea/latodim/dim_custom/x86_64-centos7-gcc11-opt",
  "command": "/cvmfs/sft.cern.ch/lcg/releases/gcc/11.1.0-e80bf/x86_64-centos7/bin/g++ -DMIPSEL -DPROTOCOL=1 -DTDAQ_PACKAGE_NAME=\\\"dim_custom\\\" -D_GNU_SOURCE -D_REENTRANT -D__USE_XOPEN2K8 -Ddim_core_EXPORTS -I/det/lar/usersarea/mbiaut/devarea/latodim/dim_custom/x86_64-centos7-gcc11-opt -I/det/lar/usersarea/mbiaut/devarea/latodim/dim_custom -I/cvmfs/atlas.cern.ch/repo/sw/tdaq/tdaq-common/tdaq-common-04-04-00/installed/include -I/cvmfs/atlas.cern.ch/repo/sw/tdaq/tdaq-common/tdaq-common-04-04-00/installed/x86_64-centos7-gcc11-opt/include -I/cvmfs/atlas.cern.ch/repo/sw/tdaq/tdaq-common/tdaq-common-04-04-00/installed/external/x86_64-centos7-gcc11-opt/include -I/cvmfs/atlas.cern.ch/repo/sw/tdaq/tdaq/tdaq-09-04-00/installed/include -I/cvmfs/atlas.cern.ch/repo/sw/tdaq/tdaq/tdaq-09-04-00/installed/x86_64-centos7-gcc11-opt/include -I/cvmfs/atlas.cern.ch/repo/sw/tdaq/tdaq/tdaq-09-04-00/installed/external/x86_64-centos7-gcc11-opt/include  -pipe -Wall -Wwrite-strings -Wno-unused-local-typedefs -Wno-deprecated-declarations -fno-omit-frame-pointer -rdynamic -fno-inline-small-functions -fno-indirect-inlining -fno-optimize-sibling-calls -fno-inline-functions-called-once -O2 -g -fPIC -std=c++17 -o CMakeFiles/dim-core.dir/src/diccpp.cxx.o -c /det/lar/usersarea/mbiaut/devarea/latodim/dim_custom/src/diccpp.cxx",
  "file": "/det/lar/usersarea/mbiaut/devarea/latodim/dim_custom/src/diccpp.cxx"
},
{
  "directory": "/det/lar/usersarea/mbiaut/devarea/latodim/dim_custom/x86_64-centos7-gcc11-opt",
  "command": "/cvmfs/sft.cern.ch/lcg/releases/gcc/11.1.0-e80bf/x86_64-centos7/bin/gcc -DMIPSEL -DPROTOCOL=1 -DTDAQ_PACKAGE_NAME=\\\"dim_custom\\\" -D_GNU_SOURCE -D_REENTRANT -D__USE_XOPEN2K8 -Ddim_core_EXPORTS -I/det/lar/usersarea/mbiaut/devarea/latodim/dim_custom/x86_64-centos7-gcc11-opt -I/det/lar/usersarea/mbiaut/devarea/latodim/dim_custom -I/cvmfs/atlas.cern.ch/repo/sw/tdaq/tdaq-common/tdaq-common-04-04-00/installed/include -I/cvmfs/atlas.cern.ch/repo/sw/tdaq/tdaq-common/tdaq-common-04-04-00/installed/x86_64-centos7-gcc11-opt/include -I/cvmfs/atlas.cern.ch/repo/sw/tdaq/tdaq-common/tdaq-common-04-04-00/installed/external/x86_64-centos7-gcc11-opt/include -I/cvmfs/atlas.cern.ch/repo/sw/tdaq/tdaq/tdaq-09-04-00/installed/include -I/cvmfs/atlas.cern.ch/repo/sw/tdaq/tdaq/tdaq-09-04-00/installed/x86_64-centos7-gcc11-opt/include -I/cvmfs/atlas.cern.ch/repo/sw/tdaq/tdaq/tdaq-09-04-00/installed/external/x86_64-centos7-gcc11-opt/include  -pipe -Wall -Wwrite-strings -fno-omit-frame-pointer -rdynamic -fno-inline-small-functions -fno-indirect-inlining -fno-optimize-sibling-calls -fno-inline-functions-called-once -O2 -g -fPIC -o CMakeFiles/dim-core.dir/src/dim_thr.c.o -c /det/lar/usersarea/mbiaut/devarea/latodim/dim_custom/src/dim_thr.c",
  "file": "/det/lar/usersarea/mbiaut/devarea/latodim/dim_custom/src/dim_thr.c"
},
{
  "directory": "/det/lar/usersarea/mbiaut/devarea/latodim/dim_custom/x86_64-centos7-gcc11-opt",
  "command": "/cvmfs/sft.cern.ch/lcg/releases/gcc/11.1.0-e80bf/x86_64-centos7/bin/g++ -DMIPSEL -DPROTOCOL=1 -DTDAQ_PACKAGE_NAME=\\\"dim_custom\\\" -D_GNU_SOURCE -D_REENTRANT -D__USE_XOPEN2K8 -Ddim_core_EXPORTS -I/det/lar/usersarea/mbiaut/devarea/latodim/dim_custom/x86_64-centos7-gcc11-opt -I/det/lar/usersarea/mbiaut/devarea/latodim/dim_custom -I/cvmfs/atlas.cern.ch/repo/sw/tdaq/tdaq-common/tdaq-common-04-04-00/installed/include -I/cvmfs/atlas.cern.ch/repo/sw/tdaq/tdaq-common/tdaq-common-04-04-00/installed/x86_64-centos7-gcc11-opt/include -I/cvmfs/atlas.cern.ch/repo/sw/tdaq/tdaq-common/tdaq-common-04-04-00/installed/external/x86_64-centos7-gcc11-opt/include -I/cvmfs/atlas.cern.ch/repo/sw/tdaq/tdaq/tdaq-09-04-00/installed/include -I/cvmfs/atlas.cern.ch/repo/sw/tdaq/tdaq/tdaq-09-04-00/installed/x86_64-centos7-gcc11-opt/include -I/cvmfs/atlas.cern.ch/repo/sw/tdaq/tdaq/tdaq-09-04-00/installed/external/x86_64-centos7-gcc11-opt/include  -pipe -Wall -Wwrite-strings -Wno-unused-local-typedefs -Wno-deprecated-declarations -fno-omit-frame-pointer -rdynamic -fno-inline-small-functions -fno-indirect-inlining -fno-optimize-sibling-calls -fno-inline-functions-called-once -O2 -g -fPIC -std=c++17 -o CMakeFiles/dim-core.dir/src/dimcpp.cxx.o -c /det/lar/usersarea/mbiaut/devarea/latodim/dim_custom/src/dimcpp.cxx",
  "file": "/det/lar/usersarea/mbiaut/devarea/latodim/dim_custom/src/dimcpp.cxx"
},
{
  "directory": "/det/lar/usersarea/mbiaut/devarea/latodim/dim_custom/x86_64-centos7-gcc11-opt",
  "command": "/cvmfs/sft.cern.ch/lcg/releases/gcc/11.1.0-e80bf/x86_64-centos7/bin/gcc -DMIPSEL -DPROTOCOL=1 -DTDAQ_PACKAGE_NAME=\\\"dim_custom\\\" -D_GNU_SOURCE -D_REENTRANT -D__USE_XOPEN2K8 -Ddim_core_EXPORTS -I/det/lar/usersarea/mbiaut/devarea/latodim/dim_custom/x86_64-centos7-gcc11-opt -I/det/lar/usersarea/mbiaut/devarea/latodim/dim_custom -I/cvmfs/atlas.cern.ch/repo/sw/tdaq/tdaq-common/tdaq-common-04-04-00/installed/include -I/cvmfs/atlas.cern.ch/repo/sw/tdaq/tdaq-common/tdaq-common-04-04-00/installed/x86_64-centos7-gcc11-opt/include -I/cvmfs/atlas.cern.ch/repo/sw/tdaq/tdaq-common/tdaq-common-04-04-00/installed/external/x86_64-centos7-gcc11-opt/include -I/cvmfs/atlas.cern.ch/repo/sw/tdaq/tdaq/tdaq-09-04-00/installed/include -I/cvmfs/atlas.cern.ch/repo/sw/tdaq/tdaq/tdaq-09-04-00/installed/x86_64-centos7-gcc11-opt/include -I/cvmfs/atlas.cern.ch/repo/sw/tdaq/tdaq/tdaq-09-04-00/installed/external/x86_64-centos7-gcc11-opt/include  -pipe -Wall -Wwrite-strings -fno-omit-frame-pointer -rdynamic -fno-inline-small-functions -fno-indirect-inlining -fno-optimize-sibling-calls -fno-inline-functions-called-once -O2 -g -fPIC -o CMakeFiles/dim-core.dir/src/dis.c.o -c /det/lar/usersarea/mbiaut/devarea/latodim/dim_custom/src/dis.c",
  "file": "/det/lar/usersarea/mbiaut/devarea/latodim/dim_custom/src/dis.c"
},
{
  "directory": "/det/lar/usersarea/mbiaut/devarea/latodim/dim_custom/x86_64-centos7-gcc11-opt",
  "command": "/cvmfs/sft.cern.ch/lcg/releases/gcc/11.1.0-e80bf/x86_64-centos7/bin/g++ -DMIPSEL -DPROTOCOL=1 -DTDAQ_PACKAGE_NAME=\\\"dim_custom\\\" -D_GNU_SOURCE -D_REENTRANT -D__USE_XOPEN2K8 -Ddim_core_EXPORTS -I/det/lar/usersarea/mbiaut/devarea/latodim/dim_custom/x86_64-centos7-gcc11-opt -I/det/lar/usersarea/mbiaut/devarea/latodim/dim_custom -I/cvmfs/atlas.cern.ch/repo/sw/tdaq/tdaq-common/tdaq-common-04-04-00/installed/include -I/cvmfs/atlas.cern.ch/repo/sw/tdaq/tdaq-common/tdaq-common-04-04-00/installed/x86_64-centos7-gcc11-opt/include -I/cvmfs/atlas.cern.ch/repo/sw/tdaq/tdaq-common/tdaq-common-04-04-00/installed/external/x86_64-centos7-gcc11-opt/include -I/cvmfs/atlas.cern.ch/repo/sw/tdaq/tdaq/tdaq-09-04-00/installed/include -I/cvmfs/atlas.cern.ch/repo/sw/tdaq/tdaq/tdaq-09-04-00/installed/x86_64-centos7-gcc11-opt/include -I/cvmfs/atlas.cern.ch/repo/sw/tdaq/tdaq/tdaq-09-04-00/installed/external/x86_64-centos7-gcc11-opt/include  -pipe -Wall -Wwrite-strings -Wno-unused-local-typedefs -Wno-deprecated-declarations -fno-omit-frame-pointer -rdynamic -fno-inline-small-functions -fno-indirect-inlining -fno-optimize-sibling-calls -fno-inline-functions-called-once -O2 -g -fPIC -std=c++17 -o CMakeFiles/dim-core.dir/src/discpp.cxx.o -c /det/lar/usersarea/mbiaut/devarea/latodim/dim_custom/src/discpp.cxx",
  "file": "/det/lar/usersarea/mbiaut/devarea/latodim/dim_custom/src/discpp.cxx"
},
{
  "directory": "/det/lar/usersarea/mbiaut/devarea/latodim/dim_custom/x86_64-centos7-gcc11-opt",
  "command": "/cvmfs/sft.cern.ch/lcg/releases/gcc/11.1.0-e80bf/x86_64-centos7/bin/gcc -DMIPSEL -DPROTOCOL=1 -DTDAQ_PACKAGE_NAME=\\\"dim_custom\\\" -D_GNU_SOURCE -D_REENTRANT -D__USE_XOPEN2K8 -Ddim_core_EXPORTS -I/det/lar/usersarea/mbiaut/devarea/latodim/dim_custom/x86_64-centos7-gcc11-opt -I/det/lar/usersarea/mbiaut/devarea/latodim/dim_custom -I/cvmfs/atlas.cern.ch/repo/sw/tdaq/tdaq-common/tdaq-common-04-04-00/installed/include -I/cvmfs/atlas.cern.ch/repo/sw/tdaq/tdaq-common/tdaq-common-04-04-00/installed/x86_64-centos7-gcc11-opt/include -I/cvmfs/atlas.cern.ch/repo/sw/tdaq/tdaq-common/tdaq-common-04-04-00/installed/external/x86_64-centos7-gcc11-opt/include -I/cvmfs/atlas.cern.ch/repo/sw/tdaq/tdaq/tdaq-09-04-00/installed/include -I/cvmfs/atlas.cern.ch/repo/sw/tdaq/tdaq/tdaq-09-04-00/installed/x86_64-centos7-gcc11-opt/include -I/cvmfs/atlas.cern.ch/repo/sw/tdaq/tdaq/tdaq-09-04-00/installed/external/x86_64-centos7-gcc11-opt/include  -pipe -Wall -Wwrite-strings -fno-omit-frame-pointer -rdynamic -fno-inline-small-functions -fno-indirect-inlining -fno-optimize-sibling-calls -fno-inline-functions-called-once -O2 -g -fPIC -o CMakeFiles/dim-core.dir/src/dll.c.o -c /det/lar/usersarea/mbiaut/devarea/latodim/dim_custom/src/dll.c",
  "file": "/det/lar/usersarea/mbiaut/devarea/latodim/dim_custom/src/dll.c"
},
{
  "directory": "/det/lar/usersarea/mbiaut/devarea/latodim/dim_custom/x86_64-centos7-gcc11-opt",
  "command": "/cvmfs/sft.cern.ch/lcg/releases/gcc/11.1.0-e80bf/x86_64-centos7/bin/gcc -DMIPSEL -DPROTOCOL=1 -DTDAQ_PACKAGE_NAME=\\\"dim_custom\\\" -D_GNU_SOURCE -D_REENTRANT -D__USE_XOPEN2K8 -Ddim_core_EXPORTS -I/det/lar/usersarea/mbiaut/devarea/latodim/dim_custom/x86_64-centos7-gcc11-opt -I/det/lar/usersarea/mbiaut/devarea/latodim/dim_custom -I/cvmfs/atlas.cern.ch/repo/sw/tdaq/tdaq-common/tdaq-common-04-04-00/installed/include -I/cvmfs/atlas.cern.ch/repo/sw/tdaq/tdaq-common/tdaq-common-04-04-00/installed/x86_64-centos7-gcc11-opt/include -I/cvmfs/atlas.cern.ch/repo/sw/tdaq/tdaq-common/tdaq-common-04-04-00/installed/external/x86_64-centos7-gcc11-opt/include -I/cvmfs/atlas.cern.ch/repo/sw/tdaq/tdaq/tdaq-09-04-00/installed/include -I/cvmfs/atlas.cern.ch/repo/sw/tdaq/tdaq/tdaq-09-04-00/installed/x86_64-centos7-gcc11-opt/include -I/cvmfs/atlas.cern.ch/repo/sw/tdaq/tdaq/tdaq-09-04-00/installed/external/x86_64-centos7-gcc11-opt/include  -pipe -Wall -Wwrite-strings -fno-omit-frame-pointer -rdynamic -fno-inline-small-functions -fno-indirect-inlining -fno-optimize-sibling-calls -fno-inline-functions-called-once -O2 -g -fPIC -o CMakeFiles/dim-core.dir/src/dna.c.o -c /det/lar/usersarea/mbiaut/devarea/latodim/dim_custom/src/dna.c",
  "file": "/det/lar/usersarea/mbiaut/devarea/latodim/dim_custom/src/dna.c"
},
{
  "directory": "/det/lar/usersarea/mbiaut/devarea/latodim/dim_custom/x86_64-centos7-gcc11-opt",
  "command": "/cvmfs/sft.cern.ch/lcg/releases/gcc/11.1.0-e80bf/x86_64-centos7/bin/gcc -DMIPSEL -DPROTOCOL=1 -DTDAQ_PACKAGE_NAME=\\\"dim_custom\\\" -D_GNU_SOURCE -D_REENTRANT -D__USE_XOPEN2K8 -Ddim_core_EXPORTS -I/det/lar/usersarea/mbiaut/devarea/latodim/dim_custom/x86_64-centos7-gcc11-opt -I/det/lar/usersarea/mbiaut/devarea/latodim/dim_custom -I/cvmfs/atlas.cern.ch/repo/sw/tdaq/tdaq-common/tdaq-common-04-04-00/installed/include -I/cvmfs/atlas.cern.ch/repo/sw/tdaq/tdaq-common/tdaq-common-04-04-00/installed/x86_64-centos7-gcc11-opt/include -I/cvmfs/atlas.cern.ch/repo/sw/tdaq/tdaq-common/tdaq-common-04-04-00/installed/external/x86_64-centos7-gcc11-opt/include -I/cvmfs/atlas.cern.ch/repo/sw/tdaq/tdaq/tdaq-09-04-00/installed/include -I/cvmfs/atlas.cern.ch/repo/sw/tdaq/tdaq/tdaq-09-04-00/installed/x86_64-centos7-gcc11-opt/include -I/cvmfs/atlas.cern.ch/repo/sw/tdaq/tdaq/tdaq-09-04-00/installed/external/x86_64-centos7-gcc11-opt/include  -pipe -Wall -Wwrite-strings -fno-omit-frame-pointer -rdynamic -fno-inline-small-functions -fno-indirect-inlining -fno-optimize-sibling-calls -fno-inline-functions-called-once -O2 -g -fPIC -o CMakeFiles/dim-core.dir/src/dns.c.o -c /det/lar/usersarea/mbiaut/devarea/latodim/dim_custom/src/dns.c",
  "file": "/det/lar/usersarea/mbiaut/devarea/latodim/dim_custom/src/dns.c"
},
{
  "directory": "/det/lar/usersarea/mbiaut/devarea/latodim/dim_custom/x86_64-centos7-gcc11-opt",
  "command": "/cvmfs/sft.cern.ch/lcg/releases/gcc/11.1.0-e80bf/x86_64-centos7/bin/gcc -DMIPSEL -DPROTOCOL=1 -DTDAQ_PACKAGE_NAME=\\\"dim_custom\\\" -D_GNU_SOURCE -D_REENTRANT -D__USE_XOPEN2K8 -Ddim_core_EXPORTS -I/det/lar/usersarea/mbiaut/devarea/latodim/dim_custom/x86_64-centos7-gcc11-opt -I/det/lar/usersarea/mbiaut/devarea/latodim/dim_custom -I/cvmfs/atlas.cern.ch/repo/sw/tdaq/tdaq-common/tdaq-common-04-04-00/installed/include -I/cvmfs/atlas.cern.ch/repo/sw/tdaq/tdaq-common/tdaq-common-04-04-00/installed/x86_64-centos7-gcc11-opt/include -I/cvmfs/atlas.cern.ch/repo/sw/tdaq/tdaq-common/tdaq-common-04-04-00/installed/external/x86_64-centos7-gcc11-opt/include -I/cvmfs/atlas.cern.ch/repo/sw/tdaq/tdaq/tdaq-09-04-00/installed/include -I/cvmfs/atlas.cern.ch/repo/sw/tdaq/tdaq/tdaq-09-04-00/installed/x86_64-centos7-gcc11-opt/include -I/cvmfs/atlas.cern.ch/repo/sw/tdaq/tdaq/tdaq-09-04-00/installed/external/x86_64-centos7-gcc11-opt/include  -pipe -Wall -Wwrite-strings -fno-omit-frame-pointer -rdynamic -fno-inline-small-functions -fno-indirect-inlining -fno-optimize-sibling-calls -fno-inline-functions-called-once -O2 -g -fPIC -o CMakeFiles/dim-core.dir/src/dtq.c.o -c /det/lar/usersarea/mbiaut/devarea/latodim/dim_custom/src/dtq.c",
  "file": "/det/lar/usersarea/mbiaut/devarea/latodim/dim_custom/src/dtq.c"
},
{
  "directory": "/det/lar/usersarea/mbiaut/devarea/latodim/dim_custom/x86_64-centos7-gcc11-opt",
  "command": "/cvmfs/sft.cern.ch/lcg/releases/gcc/11.1.0-e80bf/x86_64-centos7/bin/gcc -DMIPSEL -DPROTOCOL=1 -DTDAQ_PACKAGE_NAME=\\\"dim_custom\\\" -D_GNU_SOURCE -D_REENTRANT -D__USE_XOPEN2K8 -Ddim_core_EXPORTS -I/det/lar/usersarea/mbiaut/devarea/latodim/dim_custom/x86_64-centos7-gcc11-opt -I/det/lar/usersarea/mbiaut/devarea/latodim/dim_custom -I/cvmfs/atlas.cern.ch/repo/sw/tdaq/tdaq-common/tdaq-common-04-04-00/installed/include -I/cvmfs/atlas.cern.ch/repo/sw/tdaq/tdaq-common/tdaq-common-04-04-00/installed/x86_64-centos7-gcc11-opt/include -I/cvmfs/atlas.cern.ch/repo/sw/tdaq/tdaq-common/tdaq-common-04-04-00/installed/external/x86_64-centos7-gcc11-opt/include -I/cvmfs/atlas.cern.ch/repo/sw/tdaq/tdaq/tdaq-09-04-00/installed/include -I/cvmfs/atlas.cern.ch/repo/sw/tdaq/tdaq/tdaq-09-04-00/installed/x86_64-centos7-gcc11-opt/include -I/cvmfs/atlas.cern.ch/repo/sw/tdaq/tdaq/tdaq-09-04-00/installed/external/x86_64-centos7-gcc11-opt/include  -pipe -Wall -Wwrite-strings -fno-omit-frame-pointer -rdynamic -fno-inline-small-functions -fno-indirect-inlining -fno-optimize-sibling-calls -fno-inline-functions-called-once -O2 -g -fPIC -o CMakeFiles/dim-core.dir/src/hash.c.o -c /det/lar/usersarea/mbiaut/devarea/latodim/dim_custom/src/hash.c",
  "file": "/det/lar/usersarea/mbiaut/devarea/latodim/dim_custom/src/hash.c"
},
{
  "directory": "/det/lar/usersarea/mbiaut/devarea/latodim/dim_custom/x86_64-centos7-gcc11-opt",
  "command": "/cvmfs/sft.cern.ch/lcg/releases/gcc/11.1.0-e80bf/x86_64-centos7/bin/gcc -DMIPSEL -DPROTOCOL=1 -DTDAQ_PACKAGE_NAME=\\\"dim_custom\\\" -D_GNU_SOURCE -D_REENTRANT -D__USE_XOPEN2K8 -Ddim_core_EXPORTS -I/det/lar/usersarea/mbiaut/devarea/latodim/dim_custom/x86_64-centos7-gcc11-opt -I/det/lar/usersarea/mbiaut/devarea/latodim/dim_custom -I/cvmfs/atlas.cern.ch/repo/sw/tdaq/tdaq-common/tdaq-common-04-04-00/installed/include -I/cvmfs/atlas.cern.ch/repo/sw/tdaq/tdaq-common/tdaq-common-04-04-00/installed/x86_64-centos7-gcc11-opt/include -I/cvmfs/atlas.cern.ch/repo/sw/tdaq/tdaq-common/tdaq-common-04-04-00/installed/external/x86_64-centos7-gcc11-opt/include -I/cvmfs/atlas.cern.ch/repo/sw/tdaq/tdaq/tdaq-09-04-00/installed/include -I/cvmfs/atlas.cern.ch/repo/sw/tdaq/tdaq/tdaq-09-04-00/installed/x86_64-centos7-gcc11-opt/include -I/cvmfs/atlas.cern.ch/repo/sw/tdaq/tdaq/tdaq-09-04-00/installed/external/x86_64-centos7-gcc11-opt/include  -pipe -Wall -Wwrite-strings -fno-omit-frame-pointer -rdynamic -fno-inline-small-functions -fno-indirect-inlining -fno-optimize-sibling-calls -fno-inline-functions-called-once -O2 -g -fPIC -o CMakeFiles/dim-core.dir/src/open_dns.c.o -c /det/lar/usersarea/mbiaut/devarea/latodim/dim_custom/src/open_dns.c",
  "file": "/det/lar/usersarea/mbiaut/devarea/latodim/dim_custom/src/open_dns.c"
},
{
  "directory": "/det/lar/usersarea/mbiaut/devarea/latodim/dim_custom/x86_64-centos7-gcc11-opt",
  "command": "/cvmfs/sft.cern.ch/lcg/releases/gcc/11.1.0-e80bf/x86_64-centos7/bin/gcc -DMIPSEL -DPROTOCOL=1 -DTDAQ_PACKAGE_NAME=\\\"dim_custom\\\" -D_GNU_SOURCE -D_REENTRANT -D__USE_XOPEN2K8 -Ddim_core_EXPORTS -I/det/lar/usersarea/mbiaut/devarea/latodim/dim_custom/x86_64-centos7-gcc11-opt -I/det/lar/usersarea/mbiaut/devarea/latodim/dim_custom -I/cvmfs/atlas.cern.ch/repo/sw/tdaq/tdaq-common/tdaq-common-04-04-00/installed/include -I/cvmfs/atlas.cern.ch/repo/sw/tdaq/tdaq-common/tdaq-common-04-04-00/installed/x86_64-centos7-gcc11-opt/include -I/cvmfs/atlas.cern.ch/repo/sw/tdaq/tdaq-common/tdaq-common-04-04-00/installed/external/x86_64-centos7-gcc11-opt/include -I/cvmfs/atlas.cern.ch/repo/sw/tdaq/tdaq/tdaq-09-04-00/installed/include -I/cvmfs/atlas.cern.ch/repo/sw/tdaq/tdaq/tdaq-09-04-00/installed/x86_64-centos7-gcc11-opt/include -I/cvmfs/atlas.cern.ch/repo/sw/tdaq/tdaq/tdaq-09-04-00/installed/external/x86_64-centos7-gcc11-opt/include  -pipe -Wall -Wwrite-strings -fno-omit-frame-pointer -rdynamic -fno-inline-small-functions -fno-indirect-inlining -fno-optimize-sibling-calls -fno-inline-functions-called-once -O2 -g -fPIC -o CMakeFiles/dim-core.dir/src/sll.c.o -c /det/lar/usersarea/mbiaut/devarea/latodim/dim_custom/src/sll.c",
  "file": "/det/lar/usersarea/mbiaut/devarea/latodim/dim_custom/src/sll.c"
},
{
  "directory": "/det/lar/usersarea/mbiaut/devarea/latodim/dim_custom/x86_64-centos7-gcc11-opt",
  "command": "/cvmfs/sft.cern.ch/lcg/releases/gcc/11.1.0-e80bf/x86_64-centos7/bin/gcc -DMIPSEL -DPROTOCOL=1 -DTDAQ_PACKAGE_NAME=\\\"dim_custom\\\" -D_GNU_SOURCE -D_REENTRANT -D__USE_XOPEN2K8 -Ddim_core_EXPORTS -I/det/lar/usersarea/mbiaut/devarea/latodim/dim_custom/x86_64-centos7-gcc11-opt -I/det/lar/usersarea/mbiaut/devarea/latodim/dim_custom -I/cvmfs/atlas.cern.ch/repo/sw/tdaq/tdaq-common/tdaq-common-04-04-00/installed/include -I/cvmfs/atlas.cern.ch/repo/sw/tdaq/tdaq-common/tdaq-common-04-04-00/installed/x86_64-centos7-gcc11-opt/include -I/cvmfs/atlas.cern.ch/repo/sw/tdaq/tdaq-common/tdaq-common-04-04-00/installed/external/x86_64-centos7-gcc11-opt/include -I/cvmfs/atlas.cern.ch/repo/sw/tdaq/tdaq/tdaq-09-04-00/installed/include -I/cvmfs/atlas.cern.ch/repo/sw/tdaq/tdaq/tdaq-09-04-00/installed/x86_64-centos7-gcc11-opt/include -I/cvmfs/atlas.cern.ch/repo/sw/tdaq/tdaq/tdaq-09-04-00/installed/external/x86_64-centos7-gcc11-opt/include  -pipe -Wall -Wwrite-strings -fno-omit-frame-pointer -rdynamic -fno-inline-small-functions -fno-indirect-inlining -fno-optimize-sibling-calls -fno-inline-functions-called-once -O2 -g -fPIC -o CMakeFiles/dim-core.dir/src/swap.c.o -c /det/lar/usersarea/mbiaut/devarea/latodim/dim_custom/src/swap.c",
  "file": "/det/lar/usersarea/mbiaut/devarea/latodim/dim_custom/src/swap.c"
},
{
  "directory": "/det/lar/usersarea/mbiaut/devarea/latodim/dim_custom/x86_64-centos7-gcc11-opt",
  "command": "/cvmfs/sft.cern.ch/lcg/releases/gcc/11.1.0-e80bf/x86_64-centos7/bin/gcc -DMIPSEL -DPROTOCOL=1 -DTDAQ_PACKAGE_NAME=\\\"dim_custom\\\" -D_GNU_SOURCE -D_REENTRANT -D__USE_XOPEN2K8 -Ddim_core_EXPORTS -I/det/lar/usersarea/mbiaut/devarea/latodim/dim_custom/x86_64-centos7-gcc11-opt -I/det/lar/usersarea/mbiaut/devarea/latodim/dim_custom -I/cvmfs/atlas.cern.ch/repo/sw/tdaq/tdaq-common/tdaq-common-04-04-00/installed/include -I/cvmfs/atlas.cern.ch/repo/sw/tdaq/tdaq-common/tdaq-common-04-04-00/installed/x86_64-centos7-gcc11-opt/include -I/cvmfs/atlas.cern.ch/repo/sw/tdaq/tdaq-common/tdaq-common-04-04-00/installed/external/x86_64-centos7-gcc11-opt/include -I/cvmfs/atlas.cern.ch/repo/sw/tdaq/tdaq/tdaq-09-04-00/installed/include -I/cvmfs/atlas.cern.ch/repo/sw/tdaq/tdaq/tdaq-09-04-00/installed/x86_64-centos7-gcc11-opt/include -I/cvmfs/atlas.cern.ch/repo/sw/tdaq/tdaq/tdaq-09-04-00/installed/external/x86_64-centos7-gcc11-opt/include  -pipe -Wall -Wwrite-strings -fno-omit-frame-pointer -rdynamic -fno-inline-small-functions -fno-indirect-inlining -fno-optimize-sibling-calls -fno-inline-functions-called-once -O2 -g -fPIC -o CMakeFiles/dim-core.dir/src/tcpip.c.o -c /det/lar/usersarea/mbiaut/devarea/latodim/dim_custom/src/tcpip.c",
  "file": "/det/lar/usersarea/mbiaut/devarea/latodim/dim_custom/src/tcpip.c"
},
{
  "directory": "/det/lar/usersarea/mbiaut/devarea/latodim/dim_custom/x86_64-centos7-gcc11-opt",
  "command": "/cvmfs/sft.cern.ch/lcg/releases/gcc/11.1.0-e80bf/x86_64-centos7/bin/g++ -DMIPSEL -DPROTOCOL=1 -DTDAQ_PACKAGE_NAME=\\\"dim_custom\\\" -D_GNU_SOURCE -D_REENTRANT -D__USE_XOPEN2K8 -Ddim_core_EXPORTS -I/det/lar/usersarea/mbiaut/devarea/latodim/dim_custom/x86_64-centos7-gcc11-opt -I/det/lar/usersarea/mbiaut/devarea/latodim/dim_custom -I/cvmfs/atlas.cern.ch/repo/sw/tdaq/tdaq-common/tdaq-common-04-04-00/installed/include -I/cvmfs/atlas.cern.ch/repo/sw/tdaq/tdaq-common/tdaq-common-04-04-00/installed/x86_64-centos7-gcc11-opt/include -I/cvmfs/atlas.cern.ch/repo/sw/tdaq/tdaq-common/tdaq-common-04-04-00/installed/external/x86_64-centos7-gcc11-opt/include -I/cvmfs/atlas.cern.ch/repo/sw/tdaq/tdaq/tdaq-09-04-00/installed/include -I/cvmfs/atlas.cern.ch/repo/sw/tdaq/tdaq/tdaq-09-04-00/installed/x86_64-centos7-gcc11-opt/include -I/cvmfs/atlas.cern.ch/repo/sw/tdaq/tdaq/tdaq-09-04-00/installed/external/x86_64-centos7-gcc11-opt/include  -pipe -Wall -Wwrite-strings -Wno-unused-local-typedefs -Wno-deprecated-declarations -fno-omit-frame-pointer -rdynamic -fno-inline-small-functions -fno-indirect-inlining -fno-optimize-sibling-calls -fno-inline-functions-called-once -O2 -g -fPIC -std=c++17 -o CMakeFiles/dim-core.dir/src/tokenstring.cxx.o -c /det/lar/usersarea/mbiaut/devarea/latodim/dim_custom/src/tokenstring.cxx",
  "file": "/det/lar/usersarea/mbiaut/devarea/latodim/dim_custom/src/tokenstring.cxx"
},
{
  "directory": "/det/lar/usersarea/mbiaut/devarea/latodim/dim_custom/x86_64-centos7-gcc11-opt",
  "command": "/cvmfs/sft.cern.ch/lcg/releases/gcc/11.1.0-e80bf/x86_64-centos7/bin/gcc -DMIPSEL -DPROTOCOL=1 -DTDAQ_PACKAGE_NAME=\\\"dim_custom\\\" -D_GNU_SOURCE -D_REENTRANT -D__USE_XOPEN2K8 -Ddim_core_EXPORTS -I/det/lar/usersarea/mbiaut/devarea/latodim/dim_custom/x86_64-centos7-gcc11-opt -I/det/lar/usersarea/mbiaut/devarea/latodim/dim_custom -I/cvmfs/atlas.cern.ch/repo/sw/tdaq/tdaq-common/tdaq-common-04-04-00/installed/include -I/cvmfs/atlas.cern.ch/repo/sw/tdaq/tdaq-common/tdaq-common-04-04-00/installed/x86_64-centos7-gcc11-opt/include -I/cvmfs/atlas.cern.ch/repo/sw/tdaq/tdaq-common/tdaq-common-04-04-00/installed/external/x86_64-centos7-gcc11-opt/include -I/cvmfs/atlas.cern.ch/repo/sw/tdaq/tdaq/tdaq-09-04-00/installed/include -I/cvmfs/atlas.cern.ch/repo/sw/tdaq/tdaq/tdaq-09-04-00/installed/x86_64-centos7-gcc11-opt/include -I/cvmfs/atlas.cern.ch/repo/sw/tdaq/tdaq/tdaq-09-04-00/installed/external/x86_64-centos7-gcc11-opt/include  -pipe -Wall -Wwrite-strings -fno-omit-frame-pointer -rdynamic -fno-inline-small-functions -fno-indirect-inlining -fno-optimize-sibling-calls -fno-inline-functions-called-once -O2 -g -fPIC -o CMakeFiles/dim-core.dir/src/utilities.c.o -c /det/lar/usersarea/mbiaut/devarea/latodim/dim_custom/src/utilities.c",
  "file": "/det/lar/usersarea/mbiaut/devarea/latodim/dim_custom/src/utilities.c"
},
{
  "directory": "/det/lar/usersarea/mbiaut/devarea/latodim/dim_custom/x86_64-centos7-gcc11-opt",
  "command": "/cvmfs/sft.cern.ch/lcg/releases/gcc/11.1.0-e80bf/x86_64-centos7/bin/gcc -DMIPSEL -DPROTOCOL=1 -DTDAQ_PACKAGE_NAME=\\\"dim_custom\\\" -D_GNU_SOURCE -D_REENTRANT -D__USE_XOPEN2K8 -I/det/lar/usersarea/mbiaut/devarea/latodim/dim_custom/x86_64-centos7-gcc11-opt -I/det/lar/usersarea/mbiaut/devarea/latodim/dim_custom -I/cvmfs/atlas.cern.ch/repo/sw/tdaq/tdaq-common/tdaq-common-04-04-00/installed/include -I/cvmfs/atlas.cern.ch/repo/sw/tdaq/tdaq-common/tdaq-common-04-04-00/installed/x86_64-centos7-gcc11-opt/include -I/cvmfs/atlas.cern.ch/repo/sw/tdaq/tdaq-common/tdaq-common-04-04-00/installed/external/x86_64-centos7-gcc11-opt/include -I/cvmfs/atlas.cern.ch/repo/sw/tdaq/tdaq/tdaq-09-04-00/installed/include -I/cvmfs/atlas.cern.ch/repo/sw/tdaq/tdaq/tdaq-09-04-00/installed/x86_64-centos7-gcc11-opt/include -I/cvmfs/atlas.cern.ch/repo/sw/tdaq/tdaq/tdaq-09-04-00/installed/external/x86_64-centos7-gcc11-opt/include  -pipe -Wall -Wwrite-strings -fno-omit-frame-pointer -rdynamic -fno-inline-small-functions -fno-indirect-inlining -fno-optimize-sibling-calls -fno-inline-functions-called-once -O2 -g -o CMakeFiles/dim_send_command.dir/src/util/dim_send_command.c.o -c /det/lar/usersarea/mbiaut/devarea/latodim/dim_custom/src/util/dim_send_command.c",
  "file": "/det/lar/usersarea/mbiaut/devarea/latodim/dim_custom/src/util/dim_send_command.c"
},
{
  "directory": "/det/lar/usersarea/mbiaut/devarea/latodim/dim_custom/x86_64-centos7-gcc11-opt",
  "command": "/cvmfs/sft.cern.ch/lcg/releases/gcc/11.1.0-e80bf/x86_64-centos7/bin/gcc -DMIPSEL -DPROTOCOL=1 -DTDAQ_PACKAGE_NAME=\\\"dim_custom\\\" -D_GNU_SOURCE -D_REENTRANT -D__USE_XOPEN2K8 -I/det/lar/usersarea/mbiaut/devarea/latodim/dim_custom/x86_64-centos7-gcc11-opt -I/det/lar/usersarea/mbiaut/devarea/latodim/dim_custom -I/cvmfs/atlas.cern.ch/repo/sw/tdaq/tdaq-common/tdaq-common-04-04-00/installed/include -I/cvmfs/atlas.cern.ch/repo/sw/tdaq/tdaq-common/tdaq-common-04-04-00/installed/x86_64-centos7-gcc11-opt/include -I/cvmfs/atlas.cern.ch/repo/sw/tdaq/tdaq-common/tdaq-common-04-04-00/installed/external/x86_64-centos7-gcc11-opt/include -I/cvmfs/atlas.cern.ch/repo/sw/tdaq/tdaq/tdaq-09-04-00/installed/include -I/cvmfs/atlas.cern.ch/repo/sw/tdaq/tdaq/tdaq-09-04-00/installed/x86_64-centos7-gcc11-opt/include -I/cvmfs/atlas.cern.ch/repo/sw/tdaq/tdaq/tdaq-09-04-00/installed/external/x86_64-centos7-gcc11-opt/include  -pipe -Wall -Wwrite-strings -fno-omit-frame-pointer -rdynamic -fno-inline-small-functions -fno-indirect-inlining -fno-optimize-sibling-calls -fno-inline-functions-called-once -O2 -g -Wno-discarded-qualifiers -o CMakeFiles/did.dir/src/did/did.c.o -c /det/lar/usersarea/mbiaut/devarea/latodim/dim_custom/src/did/did.c",
  "file": "/det/lar/usersarea/mbiaut/devarea/latodim/dim_custom/src/did/did.c"
},
{
  "directory": "/det/lar/usersarea/mbiaut/devarea/latodim/dim_custom/x86_64-centos7-gcc11-opt",
  "command": "/cvmfs/sft.cern.ch/lcg/releases/gcc/11.1.0-e80bf/x86_64-centos7/bin/gcc -DMIPSEL -DPROTOCOL=1 -DTDAQ_PACKAGE_NAME=\\\"dim_custom\\\" -D_GNU_SOURCE -D_REENTRANT -D__USE_XOPEN2K8 -I/det/lar/usersarea/mbiaut/devarea/latodim/dim_custom/x86_64-centos7-gcc11-opt -I/det/lar/usersarea/mbiaut/devarea/latodim/dim_custom -I/cvmfs/atlas.cern.ch/repo/sw/tdaq/tdaq-common/tdaq-common-04-04-00/installed/include -I/cvmfs/atlas.cern.ch/repo/sw/tdaq/tdaq-common/tdaq-common-04-04-00/installed/x86_64-centos7-gcc11-opt/include -I/cvmfs/atlas.cern.ch/repo/sw/tdaq/tdaq-common/tdaq-common-04-04-00/installed/external/x86_64-centos7-gcc11-opt/include -I/cvmfs/atlas.cern.ch/repo/sw/tdaq/tdaq/tdaq-09-04-00/installed/include -I/cvmfs/atlas.cern.ch/repo/sw/tdaq/tdaq/tdaq-09-04-00/installed/x86_64-centos7-gcc11-opt/include -I/cvmfs/atlas.cern.ch/repo/sw/tdaq/tdaq/tdaq-09-04-00/installed/external/x86_64-centos7-gcc11-opt/include  -pipe -Wall -Wwrite-strings -fno-omit-frame-pointer -rdynamic -fno-inline-small-functions -fno-indirect-inlining -fno-optimize-sibling-calls -fno-inline-functions-called-once -O2 -g -Wno-discarded-qualifiers -o CMakeFiles/did.dir/src/did/dui_util.c.o -c /det/lar/usersarea/mbiaut/devarea/latodim/dim_custom/src/did/dui_util.c",
  "file": "/det/lar/usersarea/mbiaut/devarea/latodim/dim_custom/src/did/dui_util.c"
},
{
  "directory": "/det/lar/usersarea/mbiaut/devarea/latodim/dim_custom/x86_64-centos7-gcc11-opt",
  "command": "/cvmfs/sft.cern.ch/lcg/releases/gcc/11.1.0-e80bf/x86_64-centos7/bin/gcc -DMIPSEL -DPROTOCOL=1 -DTDAQ_PACKAGE_NAME=\\\"dim_custom\\\" -D_GNU_SOURCE -D_REENTRANT -D__USE_XOPEN2K8 -I/det/lar/usersarea/mbiaut/devarea/latodim/dim_custom/x86_64-centos7-gcc11-opt -I/det/lar/usersarea/mbiaut/devarea/latodim/dim_custom -I/cvmfs/atlas.cern.ch/repo/sw/tdaq/tdaq-common/tdaq-common-04-04-00/installed/include -I/cvmfs/atlas.cern.ch/repo/sw/tdaq/tdaq-common/tdaq-common-04-04-00/installed/x86_64-centos7-gcc11-opt/include -I/cvmfs/atlas.cern.ch/repo/sw/tdaq/tdaq-common/tdaq-common-04-04-00/installed/external/x86_64-centos7-gcc11-opt/include -I/cvmfs/atlas.cern.ch/repo/sw/tdaq/tdaq/tdaq-09-04-00/installed/include -I/cvmfs/atlas.cern.ch/repo/sw/tdaq/tdaq/tdaq-09-04-00/installed/x86_64-centos7-gcc11-opt/include -I/cvmfs/atlas.cern.ch/repo/sw/tdaq/tdaq/tdaq-09-04-00/installed/external/x86_64-centos7-gcc11-opt/include  -pipe -Wall -Wwrite-strings -fno-omit-frame-pointer -rdynamic -fno-inline-small-functions -fno-indirect-inlining -fno-optimize-sibling-calls -fno-inline-functions-called-once -O2 -g -o CMakeFiles/test_server.dir/src/examples/test_server.c.o -c /det/lar/usersarea/mbiaut/devarea/latodim/dim_custom/src/examples/test_server.c",
  "file": "/det/lar/usersarea/mbiaut/devarea/latodim/dim_custom/src/examples/test_server.c"
},
{
  "directory": "/det/lar/usersarea/mbiaut/devarea/latodim/dim_custom/x86_64-centos7-gcc11-opt",
  "command": "/cvmfs/sft.cern.ch/lcg/releases/gcc/11.1.0-e80bf/x86_64-centos7/bin/g++ -DMIPSEL -DPROTOCOL=1 -DTDAQ_PACKAGE_NAME=\\\"dim_custom\\\" -D_GNU_SOURCE -D_REENTRANT -D__USE_XOPEN2K8 -I/det/lar/usersarea/mbiaut/devarea/latodim/dim_custom/x86_64-centos7-gcc11-opt -I/det/lar/usersarea/mbiaut/devarea/latodim/dim_custom -I/cvmfs/atlas.cern.ch/repo/sw/tdaq/tdaq-common/tdaq-common-04-04-00/installed/include -I/cvmfs/atlas.cern.ch/repo/sw/tdaq/tdaq-common/tdaq-common-04-04-00/installed/x86_64-centos7-gcc11-opt/include -I/cvmfs/atlas.cern.ch/repo/sw/tdaq/tdaq-common/tdaq-common-04-04-00/installed/external/x86_64-centos7-gcc11-opt/include -I/cvmfs/atlas.cern.ch/repo/sw/tdaq/tdaq/tdaq-09-04-00/installed/include -I/cvmfs/atlas.cern.ch/repo/sw/tdaq/tdaq/tdaq-09-04-00/installed/x86_64-centos7-gcc11-opt/include -I/cvmfs/atlas.cern.ch/repo/sw/tdaq/tdaq/tdaq-09-04-00/installed/external/x86_64-centos7-gcc11-opt/include -isystem /det/lar/project/LargOnline/releases/LargOnline-940-47-00/IpBus/v1r7 -isystem /det/lar/project/LargOnline/releases/LargOnline-940-47-00/Base/v16r4 -isystem /cvmfs/sft.cern.ch/lcg/releases/LCG_101/Boost/1.77.0/x86_64-centos7-gcc11-opt/include  -pipe -Wall -Wwrite-strings -Wno-unused-local-typedefs -Wno-deprecated-declarations -fno-omit-frame-pointer -rdynamic -fno-inline-small-functions -fno-indirect-inlining -fno-optimize-sibling-calls -fno-inline-functions-called-once -O2 -g -std=c++17 -o CMakeFiles/latodim.dir/src/latodim/latodim.cxx.o -c /det/lar/usersarea/mbiaut/devarea/latodim/dim_custom/src/latodim/latodim.cxx",
  "file": "/det/lar/usersarea/mbiaut/devarea/latodim/dim_custom/src/latodim/latodim.cxx"
},
{
  "directory": "/det/lar/usersarea/mbiaut/devarea/latodim/dim_custom/x86_64-centos7-gcc11-opt",
  "command": "/cvmfs/sft.cern.ch/lcg/releases/gcc/11.1.0-e80bf/x86_64-centos7/bin/g++ -DMIPSEL -DPROTOCOL=1 -DTDAQ_PACKAGE_NAME=\\\"dim_custom\\\" -D_GNU_SOURCE -D_REENTRANT -D__USE_XOPEN2K8 -I/det/lar/usersarea/mbiaut/devarea/latodim/dim_custom/x86_64-centos7-gcc11-opt -I/det/lar/usersarea/mbiaut/devarea/latodim/dim_custom -I/cvmfs/atlas.cern.ch/repo/sw/tdaq/tdaq-common/tdaq-common-04-04-00/installed/include -I/cvmfs/atlas.cern.ch/repo/sw/tdaq/tdaq-common/tdaq-common-04-04-00/installed/x86_64-centos7-gcc11-opt/include -I/cvmfs/atlas.cern.ch/repo/sw/tdaq/tdaq-common/tdaq-common-04-04-00/installed/external/x86_64-centos7-gcc11-opt/include -I/cvmfs/atlas.cern.ch/repo/sw/tdaq/tdaq/tdaq-09-04-00/installed/include -I/cvmfs/atlas.cern.ch/repo/sw/tdaq/tdaq/tdaq-09-04-00/installed/x86_64-centos7-gcc11-opt/include -I/cvmfs/atlas.cern.ch/repo/sw/tdaq/tdaq/tdaq-09-04-00/installed/external/x86_64-centos7-gcc11-opt/include -isystem /det/lar/project/LargOnline/releases/LargOnline-940-47-00/IpBus/v1r7 -isystem /det/lar/project/LargOnline/releases/LargOnline-940-47-00/Base/v16r4 -isystem /cvmfs/sft.cern.ch/lcg/releases/LCG_101/Boost/1.77.0/x86_64-centos7-gcc11-opt/include  -pipe -Wall -Wwrite-strings -Wno-unused-local-typedefs -Wno-deprecated-declarations -fno-omit-frame-pointer -rdynamic -fno-inline-small-functions -fno-indirect-inlining -fno-optimize-sibling-calls -fno-inline-functions-called-once -O2 -g -std=c++17 -o CMakeFiles/latodim.dir/src/latodim/latome.cxx.o -c /det/lar/usersarea/mbiaut/devarea/latodim/dim_custom/src/latodim/latome.cxx",
  "file": "/det/lar/usersarea/mbiaut/devarea/latodim/dim_custom/src/latodim/latome.cxx"
},
{
  "directory": "/det/lar/usersarea/mbiaut/devarea/latodim/dim_custom/x86_64-centos7-gcc11-opt",
  "command": "/cvmfs/sft.cern.ch/lcg/releases/gcc/11.1.0-e80bf/x86_64-centos7/bin/g++ -DMIPSEL -DPROTOCOL=1 -DTDAQ_PACKAGE_NAME=\\\"dim_custom\\\" -D_GNU_SOURCE -D_REENTRANT -D__USE_XOPEN2K8 -I/det/lar/usersarea/mbiaut/devarea/latodim/dim_custom/x86_64-centos7-gcc11-opt -I/det/lar/usersarea/mbiaut/devarea/latodim/dim_custom -I/cvmfs/atlas.cern.ch/repo/sw/tdaq/tdaq-common/tdaq-common-04-04-00/installed/include -I/cvmfs/atlas.cern.ch/repo/sw/tdaq/tdaq-common/tdaq-common-04-04-00/installed/x86_64-centos7-gcc11-opt/include -I/cvmfs/atlas.cern.ch/repo/sw/tdaq/tdaq-common/tdaq-common-04-04-00/installed/external/x86_64-centos7-gcc11-opt/include -I/cvmfs/atlas.cern.ch/repo/sw/tdaq/tdaq/tdaq-09-04-00/installed/include -I/cvmfs/atlas.cern.ch/repo/sw/tdaq/tdaq/tdaq-09-04-00/installed/x86_64-centos7-gcc11-opt/include -I/cvmfs/atlas.cern.ch/repo/sw/tdaq/tdaq/tdaq-09-04-00/installed/external/x86_64-centos7-gcc11-opt/include -isystem /det/lar/project/LargOnline/releases/LargOnline-940-47-00/IpBus/v1r7 -isystem /det/lar/project/LargOnline/releases/LargOnline-940-47-00/Base/v16r4 -isystem /cvmfs/sft.cern.ch/lcg/releases/LCG_101/Boost/1.77.0/x86_64-centos7-gcc11-opt/include  -pipe -Wall -Wwrite-strings -Wno-unused-local-typedefs -Wno-deprecated-declarations -fno-omit-frame-pointer -rdynamic -fno-inline-small-functions -fno-indirect-inlining -fno-optimize-sibling-calls -fno-inline-functions-called-once -O2 -g -std=c++17 -o CMakeFiles/latodim.dir/src/latodim/larc.cxx.o -c /det/lar/usersarea/mbiaut/devarea/latodim/dim_custom/src/latodim/larc.cxx",
  "file": "/det/lar/usersarea/mbiaut/devarea/latodim/dim_custom/src/latodim/larc.cxx"
},
{
  "directory": "/det/lar/usersarea/mbiaut/devarea/latodim/dim_custom/x86_64-centos7-gcc11-opt",
  "command": "/cvmfs/sft.cern.ch/lcg/releases/gcc/11.1.0-e80bf/x86_64-centos7/bin/g++ -DMIPSEL -DPROTOCOL=1 -DTDAQ_PACKAGE_NAME=\\\"dim_custom\\\" -D_GNU_SOURCE -D_REENTRANT -D__USE_XOPEN2K8 -I/det/lar/usersarea/mbiaut/devarea/latodim/dim_custom/x86_64-centos7-gcc11-opt -I/det/lar/usersarea/mbiaut/devarea/latodim/dim_custom -I/cvmfs/atlas.cern.ch/repo/sw/tdaq/tdaq-common/tdaq-common-04-04-00/installed/include -I/cvmfs/atlas.cern.ch/repo/sw/tdaq/tdaq-common/tdaq-common-04-04-00/installed/x86_64-centos7-gcc11-opt/include -I/cvmfs/atlas.cern.ch/repo/sw/tdaq/tdaq-common/tdaq-common-04-04-00/installed/external/x86_64-centos7-gcc11-opt/include -I/cvmfs/atlas.cern.ch/repo/sw/tdaq/tdaq/tdaq-09-04-00/installed/include -I/cvmfs/atlas.cern.ch/repo/sw/tdaq/tdaq/tdaq-09-04-00/installed/x86_64-centos7-gcc11-opt/include -I/cvmfs/atlas.cern.ch/repo/sw/tdaq/tdaq/tdaq-09-04-00/installed/external/x86_64-centos7-gcc11-opt/include  -pipe -Wall -Wwrite-strings -Wno-unused-local-typedefs -Wno-deprecated-declarations -fno-omit-frame-pointer -rdynamic -fno-inline-small-functions -fno-indirect-inlining -fno-optimize-sibling-calls -fno-inline-functions-called-once -O2 -g -std=c++17 -o CMakeFiles/DimBridge.dir/src/util/dimbridge.cxx.o -c /det/lar/usersarea/mbiaut/devarea/latodim/dim_custom/src/util/dimbridge.cxx",
  "file": "/det/lar/usersarea/mbiaut/devarea/latodim/dim_custom/src/util/dimbridge.cxx"
},
{
  "directory": "/det/lar/usersarea/mbiaut/devarea/latodim/dim_custom/x86_64-centos7-gcc11-opt",
  "command": "/cvmfs/sft.cern.ch/lcg/releases/gcc/11.1.0-e80bf/x86_64-centos7/bin/gcc -DMIPSEL -DPROTOCOL=1 -DTDAQ_PACKAGE_NAME=\\\"dim_custom\\\" -D_GNU_SOURCE -D_REENTRANT -D__USE_XOPEN2K8 -I/det/lar/usersarea/mbiaut/devarea/latodim/dim_custom/x86_64-centos7-gcc11-opt -I/det/lar/usersarea/mbiaut/devarea/latodim/dim_custom -I/cvmfs/atlas.cern.ch/repo/sw/tdaq/tdaq-common/tdaq-common-04-04-00/installed/include -I/cvmfs/atlas.cern.ch/repo/sw/tdaq/tdaq-common/tdaq-common-04-04-00/installed/x86_64-centos7-gcc11-opt/include -I/cvmfs/atlas.cern.ch/repo/sw/tdaq/tdaq-common/tdaq-common-04-04-00/installed/external/x86_64-centos7-gcc11-opt/include -I/cvmfs/atlas.cern.ch/repo/sw/tdaq/tdaq/tdaq-09-04-00/installed/include -I/cvmfs/atlas.cern.ch/repo/sw/tdaq/tdaq/tdaq-09-04-00/installed/x86_64-centos7-gcc11-opt/include -I/cvmfs/atlas.cern.ch/repo/sw/tdaq/tdaq/tdaq-09-04-00/installed/external/x86_64-centos7-gcc11-opt/include  -pipe -Wall -Wwrite-strings -fno-omit-frame-pointer -rdynamic -fno-inline-small-functions -fno-indirect-inlining -fno-optimize-sibling-calls -fno-inline-functions-called-once -O2 -g -o CMakeFiles/test_client.dir/src/examples/test_client.c.o -c /det/lar/usersarea/mbiaut/devarea/latodim/dim_custom/src/examples/test_client.c",
  "file": "/det/lar/usersarea/mbiaut/devarea/latodim/dim_custom/src/examples/test_client.c"
},
{
  "directory": "/det/lar/usersarea/mbiaut/devarea/latodim/dim_custom/x86_64-centos7-gcc11-opt",
  "command": "/cvmfs/sft.cern.ch/lcg/releases/gcc/11.1.0-e80bf/x86_64-centos7/bin/g++ -DMIPSEL -DPROTOCOL=1 -DTDAQ_PACKAGE_NAME=\\\"dim_custom\\\" -D_GNU_SOURCE -D_REENTRANT -D__USE_XOPEN2K8 -I/det/lar/usersarea/mbiaut/devarea/latodim/dim_custom/x86_64-centos7-gcc11-opt -I/det/lar/usersarea/mbiaut/devarea/latodim/dim_custom -I/cvmfs/atlas.cern.ch/repo/sw/tdaq/tdaq-common/tdaq-common-04-04-00/installed/include -I/cvmfs/atlas.cern.ch/repo/sw/tdaq/tdaq-common/tdaq-common-04-04-00/installed/x86_64-centos7-gcc11-opt/include -I/cvmfs/atlas.cern.ch/repo/sw/tdaq/tdaq-common/tdaq-common-04-04-00/installed/external/x86_64-centos7-gcc11-opt/include -I/cvmfs/atlas.cern.ch/repo/sw/tdaq/tdaq/tdaq-09-04-00/installed/include -I/cvmfs/atlas.cern.ch/repo/sw/tdaq/tdaq/tdaq-09-04-00/installed/x86_64-centos7-gcc11-opt/include -I/cvmfs/atlas.cern.ch/repo/sw/tdaq/tdaq/tdaq-09-04-00/installed/external/x86_64-centos7-gcc11-opt/include  -pipe -Wall -Wwrite-strings -Wno-unused-local-typedefs -Wno-deprecated-declarations -fno-omit-frame-pointer -rdynamic -fno-inline-small-functions -fno-indirect-inlining -fno-optimize-sibling-calls -fno-inline-functions-called-once -O2 -g -std=c++17 -o CMakeFiles/benchServer.dir/src/benchmark/benchServer.cxx.o -c /det/lar/usersarea/mbiaut/devarea/latodim/dim_custom/src/benchmark/benchServer.cxx",
  "file": "/det/lar/usersarea/mbiaut/devarea/latodim/dim_custom/src/benchmark/benchServer.cxx"
},
{
  "directory": "/det/lar/usersarea/mbiaut/devarea/latodim/dim_custom/x86_64-centos7-gcc11-opt",
  "command": "/cvmfs/sft.cern.ch/lcg/releases/gcc/11.1.0-e80bf/x86_64-centos7/bin/g++ -DMIPSEL -DPROTOCOL=1 -DTDAQ_PACKAGE_NAME=\\\"dim_custom\\\" -D_GNU_SOURCE -D_REENTRANT -D__USE_XOPEN2K8 -I/det/lar/usersarea/mbiaut/devarea/latodim/dim_custom/x86_64-centos7-gcc11-opt -I/det/lar/usersarea/mbiaut/devarea/latodim/dim_custom -I/cvmfs/atlas.cern.ch/repo/sw/tdaq/tdaq-common/tdaq-common-04-04-00/installed/include -I/cvmfs/atlas.cern.ch/repo/sw/tdaq/tdaq-common/tdaq-common-04-04-00/installed/x86_64-centos7-gcc11-opt/include -I/cvmfs/atlas.cern.ch/repo/sw/tdaq/tdaq-common/tdaq-common-04-04-00/installed/external/x86_64-centos7-gcc11-opt/include -I/cvmfs/atlas.cern.ch/repo/sw/tdaq/tdaq/tdaq-09-04-00/installed/include -I/cvmfs/atlas.cern.ch/repo/sw/tdaq/tdaq/tdaq-09-04-00/installed/x86_64-centos7-gcc11-opt/include -I/cvmfs/atlas.cern.ch/repo/sw/tdaq/tdaq/tdaq-09-04-00/installed/external/x86_64-centos7-gcc11-opt/include  -pipe -Wall -Wwrite-strings -Wno-unused-local-typedefs -Wno-deprecated-declarations -fno-omit-frame-pointer -rdynamic -fno-inline-small-functions -fno-indirect-inlining -fno-optimize-sibling-calls -fno-inline-functions-called-once -O2 -g -std=c++17 -o CMakeFiles/checkDns.dir/src/util/check_dns.cxx.o -c /det/lar/usersarea/mbiaut/devarea/latodim/dim_custom/src/util/check_dns.cxx",
  "file": "/det/lar/usersarea/mbiaut/devarea/latodim/dim_custom/src/util/check_dns.cxx"
},
{
  "directory": "/det/lar/usersarea/mbiaut/devarea/latodim/dim_custom/x86_64-centos7-gcc11-opt",
  "command": "/cvmfs/sft.cern.ch/lcg/releases/gcc/11.1.0-e80bf/x86_64-centos7/bin/gcc -DMIPSEL -DPROTOCOL=1 -DTDAQ_PACKAGE_NAME=\\\"dim_custom\\\" -D_GNU_SOURCE -D_REENTRANT -D__USE_XOPEN2K8 -I/det/lar/usersarea/mbiaut/devarea/latodim/dim_custom/x86_64-centos7-gcc11-opt -I/det/lar/usersarea/mbiaut/devarea/latodim/dim_custom -I/cvmfs/atlas.cern.ch/repo/sw/tdaq/tdaq-common/tdaq-common-04-04-00/installed/include -I/cvmfs/atlas.cern.ch/repo/sw/tdaq/tdaq-common/tdaq-common-04-04-00/installed/x86_64-centos7-gcc11-opt/include -I/cvmfs/atlas.cern.ch/repo/sw/tdaq/tdaq-common/tdaq-common-04-04-00/installed/external/x86_64-centos7-gcc11-opt/include -I/cvmfs/atlas.cern.ch/repo/sw/tdaq/tdaq/tdaq-09-04-00/installed/include -I/cvmfs/atlas.cern.ch/repo/sw/tdaq/tdaq/tdaq-09-04-00/installed/x86_64-centos7-gcc11-opt/include -I/cvmfs/atlas.cern.ch/repo/sw/tdaq/tdaq/tdaq-09-04-00/installed/external/x86_64-centos7-gcc11-opt/include  -pipe -Wall -Wwrite-strings -fno-omit-frame-pointer -rdynamic -fno-inline-small-functions -fno-indirect-inlining -fno-optimize-sibling-calls -fno-inline-functions-called-once -O2 -g -o CMakeFiles/dns.dir/src/dns.c.o -c /det/lar/usersarea/mbiaut/devarea/latodim/dim_custom/src/dns.c",
  "file": "/det/lar/usersarea/mbiaut/devarea/latodim/dim_custom/src/dns.c"
},
{
  "directory": "/det/lar/usersarea/mbiaut/devarea/latodim/dim_custom/x86_64-centos7-gcc11-opt",
  "command": "/cvmfs/sft.cern.ch/lcg/releases/gcc/11.1.0-e80bf/x86_64-centos7/bin/gcc -DMIPSEL -DPROTOCOL=1 -DTDAQ_PACKAGE_NAME=\\\"dim_custom\\\" -D_GNU_SOURCE -D_REENTRANT -D__USE_XOPEN2K8 -I/det/lar/usersarea/mbiaut/devarea/latodim/dim_custom/x86_64-centos7-gcc11-opt -I/det/lar/usersarea/mbiaut/devarea/latodim/dim_custom -I/cvmfs/atlas.cern.ch/repo/sw/tdaq/tdaq-common/tdaq-common-04-04-00/installed/include -I/cvmfs/atlas.cern.ch/repo/sw/tdaq/tdaq-common/tdaq-common-04-04-00/installed/x86_64-centos7-gcc11-opt/include -I/cvmfs/atlas.cern.ch/repo/sw/tdaq/tdaq-common/tdaq-common-04-04-00/installed/external/x86_64-centos7-gcc11-opt/include -I/cvmfs/atlas.cern.ch/repo/sw/tdaq/tdaq/tdaq-09-04-00/installed/include -I/cvmfs/atlas.cern.ch/repo/sw/tdaq/tdaq/tdaq-09-04-00/installed/x86_64-centos7-gcc11-opt/include -I/cvmfs/atlas.cern.ch/repo/sw/tdaq/tdaq/tdaq-09-04-00/installed/external/x86_64-centos7-gcc11-opt/include  -pipe -Wall -Wwrite-strings -fno-omit-frame-pointer -rdynamic -fno-inline-small-functions -fno-indirect-inlining -fno-optimize-sibling-calls -fno-inline-functions-called-once -O2 -g -o CMakeFiles/dim_get_service.dir/src/util/dim_get_service.c.o -c /det/lar/usersarea/mbiaut/devarea/latodim/dim_custom/src/util/dim_get_service.c",
  "file": "/det/lar/usersarea/mbiaut/devarea/latodim/dim_custom/src/util/dim_get_service.c"
},
{
  "directory": "/det/lar/usersarea/mbiaut/devarea/latodim/dim_custom/x86_64-centos7-gcc11-opt",
  "command": "/cvmfs/sft.cern.ch/lcg/releases/gcc/11.1.0-e80bf/x86_64-centos7/bin/g++ -DMIPSEL -DPROTOCOL=1 -DTDAQ_PACKAGE_NAME=\\\"dim_custom\\\" -D_GNU_SOURCE -D_REENTRANT -D__USE_XOPEN2K8 -I/det/lar/usersarea/mbiaut/devarea/latodim/dim_custom/x86_64-centos7-gcc11-opt -I/det/lar/usersarea/mbiaut/devarea/latodim/dim_custom -I/cvmfs/atlas.cern.ch/repo/sw/tdaq/tdaq-common/tdaq-common-04-04-00/installed/include -I/cvmfs/atlas.cern.ch/repo/sw/tdaq/tdaq-common/tdaq-common-04-04-00/installed/x86_64-centos7-gcc11-opt/include -I/cvmfs/atlas.cern.ch/repo/sw/tdaq/tdaq-common/tdaq-common-04-04-00/installed/external/x86_64-centos7-gcc11-opt/include -I/cvmfs/atlas.cern.ch/repo/sw/tdaq/tdaq/tdaq-09-04-00/installed/include -I/cvmfs/atlas.cern.ch/repo/sw/tdaq/tdaq/tdaq-09-04-00/installed/x86_64-centos7-gcc11-opt/include -I/cvmfs/atlas.cern.ch/repo/sw/tdaq/tdaq/tdaq-09-04-00/installed/external/x86_64-centos7-gcc11-opt/include  -pipe -Wall -Wwrite-strings -Wno-unused-local-typedefs -Wno-deprecated-declarations -fno-omit-frame-pointer -rdynamic -fno-inline-small-functions -fno-indirect-inlining -fno-optimize-sibling-calls -fno-inline-functions-called-once -O2 -g -std=c++17 -o CMakeFiles/checkDimServers.dir/src/util/check_dim_servers.cxx.o -c /det/lar/usersarea/mbiaut/devarea/latodim/dim_custom/src/util/check_dim_servers.cxx",
  "file": "/det/lar/usersarea/mbiaut/devarea/latodim/dim_custom/src/util/check_dim_servers.cxx"
},
{
  "directory": "/det/lar/usersarea/mbiaut/devarea/latodim/dim_custom/x86_64-centos7-gcc11-opt",
  "command": "/cvmfs/sft.cern.ch/lcg/releases/gcc/11.1.0-e80bf/x86_64-centos7/bin/gcc -DMIPSEL -DPROTOCOL=1 -DTDAQ_PACKAGE_NAME=\\\"dim_custom\\\" -D_GNU_SOURCE -D_REENTRANT -D__USE_XOPEN2K8 -I/det/lar/usersarea/mbiaut/devarea/latodim/dim_custom/x86_64-centos7-gcc11-opt -I/det/lar/usersarea/mbiaut/devarea/latodim/dim_custom -I/cvmfs/atlas.cern.ch/repo/sw/tdaq/tdaq-common/tdaq-common-04-04-00/installed/include -I/cvmfs/atlas.cern.ch/repo/sw/tdaq/tdaq-common/tdaq-common-04-04-00/installed/x86_64-centos7-gcc11-opt/include -I/cvmfs/atlas.cern.ch/repo/sw/tdaq/tdaq-common/tdaq-common-04-04-00/installed/external/x86_64-centos7-gcc11-opt/include -I/cvmfs/atlas.cern.ch/repo/sw/tdaq/tdaq/tdaq-09-04-00/installed/include -I/cvmfs/atlas.cern.ch/repo/sw/tdaq/tdaq/tdaq-09-04-00/installed/x86_64-centos7-gcc11-opt/include -I/cvmfs/atlas.cern.ch/repo/sw/tdaq/tdaq/tdaq-09-04-00/installed/external/x86_64-centos7-gcc11-opt/include  -pipe -Wall -Wwrite-strings -fno-omit-frame-pointer -rdynamic -fno-inline-small-functions -fno-indirect-inlining -fno-optimize-sibling-calls -fno-inline-functions-called-once -O2 -g -o CMakeFiles/webDid.dir/src/webDid/webDid.c.o -c /det/lar/usersarea/mbiaut/devarea/latodim/dim_custom/src/webDid/webDid.c",
  "file": "/det/lar/usersarea/mbiaut/devarea/latodim/dim_custom/src/webDid/webDid.c"
},
{
  "directory": "/det/lar/usersarea/mbiaut/devarea/latodim/dim_custom/x86_64-centos7-gcc11-opt",
  "command": "/cvmfs/sft.cern.ch/lcg/releases/gcc/11.1.0-e80bf/x86_64-centos7/bin/gcc -DMIPSEL -DPROTOCOL=1 -DTDAQ_PACKAGE_NAME=\\\"dim_custom\\\" -D_GNU_SOURCE -D_REENTRANT -D__USE_XOPEN2K8 -I/det/lar/usersarea/mbiaut/devarea/latodim/dim_custom/x86_64-centos7-gcc11-opt -I/det/lar/usersarea/mbiaut/devarea/latodim/dim_custom -I/cvmfs/atlas.cern.ch/repo/sw/tdaq/tdaq-common/tdaq-common-04-04-00/installed/include -I/cvmfs/atlas.cern.ch/repo/sw/tdaq/tdaq-common/tdaq-common-04-04-00/installed/x86_64-centos7-gcc11-opt/include -I/cvmfs/atlas.cern.ch/repo/sw/tdaq/tdaq-common/tdaq-common-04-04-00/installed/external/x86_64-centos7-gcc11-opt/include -I/cvmfs/atlas.cern.ch/repo/sw/tdaq/tdaq/tdaq-09-04-00/installed/include -I/cvmfs/atlas.cern.ch/repo/sw/tdaq/tdaq/tdaq-09-04-00/installed/x86_64-centos7-gcc11-opt/include -I/cvmfs/atlas.cern.ch/repo/sw/tdaq/tdaq/tdaq-09-04-00/installed/external/x86_64-centos7-gcc11-opt/include  -pipe -Wall -Wwrite-strings -fno-omit-frame-pointer -rdynamic -fno-inline-small-functions -fno-indirect-inlining -fno-optimize-sibling-calls -fno-inline-functions-called-once -O2 -g -o CMakeFiles/webDid.dir/src/webDid/webServer.c.o -c /det/lar/usersarea/mbiaut/devarea/latodim/dim_custom/src/webDid/webServer.c",
  "file": "/det/lar/usersarea/mbiaut/devarea/latodim/dim_custom/src/webDid/webServer.c"
},
{
  "directory": "/det/lar/usersarea/mbiaut/devarea/latodim/dim_custom/x86_64-centos7-gcc11-opt",
  "command": "/cvmfs/sft.cern.ch/lcg/releases/gcc/11.1.0-e80bf/x86_64-centos7/bin/gcc -DMIPSEL -DPROTOCOL=1 -DTDAQ_PACKAGE_NAME=\\\"dim_custom\\\" -D_GNU_SOURCE -D_REENTRANT -D__USE_XOPEN2K8 -I/det/lar/usersarea/mbiaut/devarea/latodim/dim_custom/x86_64-centos7-gcc11-opt -I/det/lar/usersarea/mbiaut/devarea/latodim/dim_custom -I/cvmfs/atlas.cern.ch/repo/sw/tdaq/tdaq-common/tdaq-common-04-04-00/installed/include -I/cvmfs/atlas.cern.ch/repo/sw/tdaq/tdaq-common/tdaq-common-04-04-00/installed/x86_64-centos7-gcc11-opt/include -I/cvmfs/atlas.cern.ch/repo/sw/tdaq/tdaq-common/tdaq-common-04-04-00/installed/external/x86_64-centos7-gcc11-opt/include -I/cvmfs/atlas.cern.ch/repo/sw/tdaq/tdaq/tdaq-09-04-00/installed/include -I/cvmfs/atlas.cern.ch/repo/sw/tdaq/tdaq/tdaq-09-04-00/installed/x86_64-centos7-gcc11-opt/include -I/cvmfs/atlas.cern.ch/repo/sw/tdaq/tdaq/tdaq-09-04-00/installed/external/x86_64-centos7-gcc11-opt/include  -pipe -Wall -Wwrite-strings -fno-omit-frame-pointer -rdynamic -fno-inline-small-functions -fno-indirect-inlining -fno-optimize-sibling-calls -fno-inline-functions-called-once -O2 -g -o CMakeFiles/webDid.dir/src/webDid/webSmiD.c.o -c /det/lar/usersarea/mbiaut/devarea/latodim/dim_custom/src/webDid/webSmiD.c",
  "file": "/det/lar/usersarea/mbiaut/devarea/latodim/dim_custom/src/webDid/webSmiD.c"
},
{
  "directory": "/det/lar/usersarea/mbiaut/devarea/latodim/dim_custom/x86_64-centos7-gcc11-opt",
  "command": "/cvmfs/sft.cern.ch/lcg/releases/gcc/11.1.0-e80bf/x86_64-centos7/bin/gcc -DMIPSEL -DPROTOCOL=1 -DTDAQ_PACKAGE_NAME=\\\"dim_custom\\\" -D_GNU_SOURCE -D_REENTRANT -D__USE_XOPEN2K8 -I/det/lar/usersarea/mbiaut/devarea/latodim/dim_custom/x86_64-centos7-gcc11-opt -I/det/lar/usersarea/mbiaut/devarea/latodim/dim_custom -I/cvmfs/atlas.cern.ch/repo/sw/tdaq/tdaq-common/tdaq-common-04-04-00/installed/include -I/cvmfs/atlas.cern.ch/repo/sw/tdaq/tdaq-common/tdaq-common-04-04-00/installed/x86_64-centos7-gcc11-opt/include -I/cvmfs/atlas.cern.ch/repo/sw/tdaq/tdaq-common/tdaq-common-04-04-00/installed/external/x86_64-centos7-gcc11-opt/include -I/cvmfs/atlas.cern.ch/repo/sw/tdaq/tdaq/tdaq-09-04-00/installed/include -I/cvmfs/atlas.cern.ch/repo/sw/tdaq/tdaq/tdaq-09-04-00/installed/x86_64-centos7-gcc11-opt/include -I/cvmfs/atlas.cern.ch/repo/sw/tdaq/tdaq/tdaq-09-04-00/installed/external/x86_64-centos7-gcc11-opt/include  -pipe -Wall -Wwrite-strings -fno-omit-frame-pointer -rdynamic -fno-inline-small-functions -fno-indirect-inlining -fno-optimize-sibling-calls -fno-inline-functions-called-once -O2 -g -o CMakeFiles/webDid.dir/src/webDid/webTcpip.c.o -c /det/lar/usersarea/mbiaut/devarea/latodim/dim_custom/src/webDid/webTcpip.c",
  "file": "/det/lar/usersarea/mbiaut/devarea/latodim/dim_custom/src/webDid/webTcpip.c"
},
{
  "directory": "/det/lar/usersarea/mbiaut/devarea/latodim/dim_custom/x86_64-centos7-gcc11-opt",
  "command": "/cvmfs/sft.cern.ch/lcg/releases/gcc/11.1.0-e80bf/x86_64-centos7/bin/g++ -DMIPSEL -DPROTOCOL=1 -DTDAQ_PACKAGE_NAME=\\\"dim_custom\\\" -D_GNU_SOURCE -D_REENTRANT -D__USE_XOPEN2K8 -I/det/lar/usersarea/mbiaut/devarea/latodim/dim_custom/x86_64-centos7-gcc11-opt -I/det/lar/usersarea/mbiaut/devarea/latodim/dim_custom -I/cvmfs/atlas.cern.ch/repo/sw/tdaq/tdaq-common/tdaq-common-04-04-00/installed/include -I/cvmfs/atlas.cern.ch/repo/sw/tdaq/tdaq-common/tdaq-common-04-04-00/installed/x86_64-centos7-gcc11-opt/include -I/cvmfs/atlas.cern.ch/repo/sw/tdaq/tdaq-common/tdaq-common-04-04-00/installed/external/x86_64-centos7-gcc11-opt/include -I/cvmfs/atlas.cern.ch/repo/sw/tdaq/tdaq/tdaq-09-04-00/installed/include -I/cvmfs/atlas.cern.ch/repo/sw/tdaq/tdaq/tdaq-09-04-00/installed/x86_64-centos7-gcc11-opt/include -I/cvmfs/atlas.cern.ch/repo/sw/tdaq/tdaq/tdaq-09-04-00/installed/external/x86_64-centos7-gcc11-opt/include  -pipe -Wall -Wwrite-strings -Wno-unused-local-typedefs -Wno-deprecated-declarations -fno-omit-frame-pointer -rdynamic -fno-inline-small-functions -fno-indirect-inlining -fno-optimize-sibling-calls -fno-inline-functions-called-once -O2 -g -std=c++17 -o CMakeFiles/testClient.dir/src/examples/test_client.cxx.o -c /det/lar/usersarea/mbiaut/devarea/latodim/dim_custom/src/examples/test_client.cxx",
  "file": "/det/lar/usersarea/mbiaut/devarea/latodim/dim_custom/src/examples/test_client.cxx"
},
{
  "directory": "/det/lar/usersarea/mbiaut/devarea/latodim/dim_custom/x86_64-centos7-gcc11-opt",
  "command": "/cvmfs/sft.cern.ch/lcg/releases/gcc/11.1.0-e80bf/x86_64-centos7/bin/g++ -DMIPSEL -DPROTOCOL=1 -DTDAQ_PACKAGE_NAME=\\\"dim_custom\\\" -D_GNU_SOURCE -D_REENTRANT -D__USE_XOPEN2K8 -I/det/lar/usersarea/mbiaut/devarea/latodim/dim_custom/x86_64-centos7-gcc11-opt -I/det/lar/usersarea/mbiaut/devarea/latodim/dim_custom -I/cvmfs/atlas.cern.ch/repo/sw/tdaq/tdaq-common/tdaq-common-04-04-00/installed/include -I/cvmfs/atlas.cern.ch/repo/sw/tdaq/tdaq-common/tdaq-common-04-04-00/installed/x86_64-centos7-gcc11-opt/include -I/cvmfs/atlas.cern.ch/repo/sw/tdaq/tdaq-common/tdaq-common-04-04-00/installed/external/x86_64-centos7-gcc11-opt/include -I/cvmfs/atlas.cern.ch/repo/sw/tdaq/tdaq/tdaq-09-04-00/installed/include -I/cvmfs/atlas.cern.ch/repo/sw/tdaq/tdaq/tdaq-09-04-00/installed/x86_64-centos7-gcc11-opt/include -I/cvmfs/atlas.cern.ch/repo/sw/tdaq/tdaq/tdaq-09-04-00/installed/external/x86_64-centos7-gcc11-opt/include  -pipe -Wall -Wwrite-strings -Wno-unused-local-typedefs -Wno-deprecated-declarations -fno-omit-frame-pointer -rdynamic -fno-inline-small-functions -fno-indirect-inlining -fno-optimize-sibling-calls -fno-inline-functions-called-once -O2 -g -std=c++17 -o CMakeFiles/testServer.dir/src/examples/test_server.cxx.o -c /det/lar/usersarea/mbiaut/devarea/latodim/dim_custom/src/examples/test_server.cxx",
  "file": "/det/lar/usersarea/mbiaut/devarea/latodim/dim_custom/src/examples/test_server.cxx"
},
{
  "directory": "/det/lar/usersarea/mbiaut/devarea/latodim/dim_custom/x86_64-centos7-gcc11-opt",
  "command": "/cvmfs/sft.cern.ch/lcg/releases/gcc/11.1.0-e80bf/x86_64-centos7/bin/g++ -DMIPSEL -DPROTOCOL=1 -DTDAQ_PACKAGE_NAME=\\\"dim_custom\\\" -D_GNU_SOURCE -D_REENTRANT -D__USE_XOPEN2K8 -I/det/lar/usersarea/mbiaut/devarea/latodim/dim_custom/x86_64-centos7-gcc11-opt -I/det/lar/usersarea/mbiaut/devarea/latodim/dim_custom -I/cvmfs/atlas.cern.ch/repo/sw/tdaq/tdaq-common/tdaq-common-04-04-00/installed/include -I/cvmfs/atlas.cern.ch/repo/sw/tdaq/tdaq-common/tdaq-common-04-04-00/installed/x86_64-centos7-gcc11-opt/include -I/cvmfs/atlas.cern.ch/repo/sw/tdaq/tdaq-common/tdaq-common-04-04-00/installed/external/x86_64-centos7-gcc11-opt/include -I/cvmfs/atlas.cern.ch/repo/sw/tdaq/tdaq/tdaq-09-04-00/installed/include -I/cvmfs/atlas.cern.ch/repo/sw/tdaq/tdaq/tdaq-09-04-00/installed/x86_64-centos7-gcc11-opt/include -I/cvmfs/atlas.cern.ch/repo/sw/tdaq/tdaq/tdaq-09-04-00/installed/external/x86_64-centos7-gcc11-opt/include  -pipe -Wall -Wwrite-strings -Wno-unused-local-typedefs -Wno-deprecated-declarations -fno-omit-frame-pointer -rdynamic -fno-inline-small-functions -fno-indirect-inlining -fno-optimize-sibling-calls -fno-inline-functions-called-once -O2 -g -std=c++17 -o CMakeFiles/benchClient.dir/src/benchmark/benchClient.cxx.o -c /det/lar/usersarea/mbiaut/devarea/latodim/dim_custom/src/benchmark/benchClient.cxx",
  "file": "/det/lar/usersarea/mbiaut/devarea/latodim/dim_custom/src/benchmark/benchClient.cxx"
}
]